{
    "movie": [
            "Encanto",
            "The Little Mermaid",
            "Tangled",
            "Frozen",
            "Moana",
            "Zootopia",
            "Aladdin"
        ],
                
        "cc": [
            "Encanto is a 2021 American computer-animated musical fantasy comedy film produced by Walt Disney Animation Studios and distributed by Walt Disney Studios Motion Pictures. The 60th film produced by the studio, it was directed by Jared Bush and Byron Howard, co-directed by writer Charise Castro Smith, and produced by Yvett Merino and Clark Spencer, with original songs written by Lin-Manuel Miranda. The film stars the voices of Stephanie Beatriz, María Cecilia Botero, John Leguizamo, Mauro Castillo, Jessica Darrow, Angie Cepeda, Carolina Gaitán, Diane Guerrero, and Wilmer Valderrama.",
            "The Little Mermaid is a 1989 American animated musical fantasy film produced by Walt Disney Feature Animation and Walt Disney Pictures. The 28th Disney animated feature film, it is based on the 1837 Danish fairy tale of the same name by Hans Christian Andersen. The film tells the story of a mermaid named Ariel, who dreams of becoming human and falls in love with a human prince named Eric, which leads her to make a magic deal with the sea witch, Ursula, to become human and be with him. The Little Mermaid was written and directed by Ron Clements and John Musker and produced by Musker and Howard Ashman. The original songs were written by Ashman and Alan Menken.",
            "Tangled is a 2010 American 3D computer-animated musical adventure comedy film produced by Walt Disney Animation Studios and released by Walt Disney Pictures. Loosely based on the German fairy tale 'Rapunzel' in the collection of folk tales published by the Brothers Grimm, it is the 50th Disney animated feature film. Featuring the voices of Mandy Moore, Zachary Levi and Donna Murphy, the film tells the story of Rapunzel, a lost, young princess with magical long blonde hair who yearns to leave her secluded tower. Against her foster mother's wishes, she accepts the aid of an intruder to take her out into the world which she has never seen.",
            "Frozen is a Disney media franchise, beginning with the 2013 American animated feature film of the same name, which was directed by Chris Buck and Jennifer Lee, screenplay by Lee and produced by Peter Del Vecho, music score by Christophe Beck, and songs written by Robert Lopez and Kristen Anderson-Lopez. John Lasseter, then-chief creative officer of Walt Disney Animation Studios, served as the film's executive producer. The original film was inspired by Hans Christian Andersen's fairy tale, 'The Snow Queen'.",
            "Moana (also known as Vaiana or Oceania in some markets) is a 2016 American 3D computer-animated musical adventure film produced by Walt Disney Animation Studios and distributed by Walt Disney Pictures. The 56th Disney animated feature film, the film is directed by Ron Clements and John Musker, and co-directed by Don Hall and Chris Williams, the film introduces Auliʻi Cravalho as Moana and features the voices of Dwayne Johnson, Rachel House, Temuera Morrison, Jemaine Clement, Nicole Scherzinger, and Alan Tudyk. The film features original songs written by Lin-Manuel Miranda, Opetaia Foa'i and Mark Mancina, and an orchestral score also composed by Mancina.",
            "Zootopia (titled Zootropolis in various regions) is a 2016 American computer-animated buddy cop film produced by Walt Disney Animation Studios and released by Walt Disney Pictures. It is the 55th Disney animated feature film, directed by Byron Howard and Rich Moore, co-directed by Jared Bush, and stars the voices of Ginnifer Goodwin, Jason Bateman, Idris Elba, Jenny Slate, Nate Torrence, Bonnie Hunt, Don Lake, Tommy Chong, J. K. Simmons, Octavia Spencer, Alan Tudyk, and Shakira. Taking place in the titular city where anthropomorphic mammals coexist, it tells a story of an unlikely partnership between a rabbit police officer and a red fox con artist as they uncover a criminal conspiracy involving the disappearance of predators.",
            "Aladdin is a 2019 American musical fantasy comedy film produced by Walt Disney Pictures. Directed by Guy Ritchie, from a script he co-wrote with John August, it is a live-action/CGI adaptation of Disney's 1992 animated film of the same name, which itself is based on the eponymous tale from One Thousand and One Nights. The film stars Will Smith, Mena Massoud, Naomi Scott, Marwan Kenzari, Navid Negahban, Nasim Pedrad, Billy Magnussen, and Numan Acar, as well as the voices of Alan Tudyk and Frank Welker, the latter of whom reprises his roles from all previous media. The plot follows Aladdin, a street urchin, as he falls in love with Princess Jasmine, befriends a wish-granting Genie, and battles the wicked Jafar."
        ],
    
        "date" : [
            "2021.12.12",
            "2021.12.11",
            "2021.12.09",
            "2021.12.01",
            "2021.11.30",
            "2021.11.11",
            "2021.10.28"
        ],
    
        "ss" : [
            "https://upload.wikimedia.org/wikipedia/en/8/83/Encanto_poster.jpg",
            "https://upload.wikimedia.org/wikipedia/en/c/c0/The_Little_Mermaid_%28Official_1989_Film_Poster%29.png",
            "https://upload.wikimedia.org/wikipedia/en/a/a8/Tangled_poster.jpg",
            "https://upload.wikimedia.org/wikipedia/en/4/4f/Frozen_2_poster.jpg",
            "https://upload.wikimedia.org/wikipedia/en/2/26/Moana_Teaser_Poster.jpg",
            "https://upload.wikimedia.org/wikipedia/en/9/96/Zootopia_%28movie_poster%29.jpg",
            "https://upload.wikimedia.org/wikipedia/en/9/9a/Aladdin_%28Official_2019_Film_Poster%29.png"
        ],

        "edturl" : [
            "url1",
            "url2",
            "url3",
            "url4",
            "url5",
            "url6",
            "url7"
        ]
}

